Prereqs
…
.pull-right[

]

--- 

```r
airlines
```

```
## # A tibble: 16 x 2
##   carrier                        name
##     <chr>                       <chr>
## 1      9E           Endeavor Air Inc.
## 2      AA      American Airlines Inc.
## 3      AS        Alaska Airlines Inc.
## 4      B6             JetBlue Airways
## 5      DL        Delta Air Lines Inc.
## 6      EV    ExpressJet Airlines Inc.
## 7      F9      Frontier Airlines Inc.
## 8      FL AirTran Airways Corporation
## # ... with 8 more rows
```
…
