Importing data
…
# readr - Read CSV

* Reading and writing "flat" files

  * txt, csv, delimited

```r
# Reading in a CSV
fictrad_csv <- read_csv(file = "data/example-fictrad.csv")

fictrad_csv
```

```
## # A tibble: 1,550 x 9
##   `//ALFA_PLANCODE` ALFA_IssueAge ALFA_Sex ALFA_IssueYear IssueMonth
##               <chr>         <int>    <chr>          <dbl>      <int>
## 1             10T14            18        M           2015          8
## 2             10T14            18        M           2015          7
## 3             10T14            20        M           2015          2
## 4             10T14            22        M           2015          1
## 5             10T14            23        F           2015          7
## 6             10T14            24        M           2015          3
## # ... with 1,544 more rows, and 4 more variables: ALFA_SmokingClass <chr>,
## #   InitPremInforce <dbl>, InitStatRes <dbl>, InitTaxRes <dbl>
```
…
class: dv

# readr - Write CSV

* Reading and writing "flat" files

  * txt, csv, delimited

```r
airlines
```

```
## # A tibble: 16 x 2
##   carrier                     name
##     <chr>                    <chr>
## 1      9E        Endeavor Air Inc.
## 2      AA   American Airlines Inc.
## 3      AS     Alaska Airlines Inc.
## 4      B6          JetBlue Airways
## 5      DL     Delta Air Lines Inc.
## 6      EV ExpressJet Airlines Inc.
## # ... with 10 more rows
```
…
---

class: dv

# readxl - Simple sheet

```r
fictrad_xl <- read_excel(path  = "data/example-fictrad.xlsx",
                         sheet = "fictrad-easy")

fictrad_xl
```

```
## # A tibble: 1,550 x 9
##   `//ALFA_PLANCODE` ALFA_IssueAge ALFA_Sex ALFA_IssueYear IssueMonth
##               <chr>         <dbl>    <chr>          <dbl>      <dbl>
## 1             10T14            18        M           2015          8
## 2             10T14            18        M           2015          7
## 3             10T14            20        M           2015          2
## 4             10T14            22        M           2015          1
## 5             10T14            23        F           2015          7
## 6             10T14            24        M           2015          3
## # ... with 1,544 more rows, and 4 more variables: ALFA_SmokingClass <chr>,
## #   InitPremInforce <dbl>, InitStatRes <dbl>, InitTaxRes <dbl>
```
…
```r
# Include a range argument
fictrad_hard_1 <- read_excel(path  = "data/example-fictrad.xlsx",
                             sheet = "fictrad-hard",
*                            range = "D5:L25")

fictrad_hard_2 <- read_excel(path  = "data/example-fictrad.xlsx",
                             sheet = "fictrad-hard",
*                            range = "O3:W23")

fictrad_hard_1
```

```
## # A tibble: 20 x 9
##   `//ALFA_PLANCODE` ALFA_IssueAge ALFA_Sex ALFA_IssueYear IssueMonth
##               <chr>         <dbl>    <chr>          <dbl>      <dbl>
## 1             10T14            18        M           2015          8
## 2             10T14            18        M           2015          7
## 3             10T14            20        M           2015          2
## 4             10T14            22        M           2015          1
## 5             10T14            23        F           2015          7
## 6             10T14            24        M           2015          3
## # ... with 14 more rows, and 4 more variables: ALFA_SmokingClass <chr>,
## #   InitPremInforce <dbl>, InitStatRes <dbl>, InitTaxRes <dbl>
```
…
