Manipulation
…
---

class: dv

# select() columns

* Extract specific columns

```r
# Select year and carrier
select(.data = flights, year, carrier)
```

```
## # A tibble: 328,521 x 2
##     year carrier
##    <int>   <chr>
##  1  2013      UA
##  2  2013      UA
##  3  2013      AA
##  4  2013      B6
##  5  2013      DL
##  6  2013      UA
##  7  2013      B6
##  8  2013      EV
##  9  2013      B6
## 10  2013      AA
## # ... with 328,511 more rows
```
---

class: dv

# select() columns

* Everything except...

```r
# Select everything except year
select(.data = flights, -year)
```

```
## # A tibble: 328,521 x 6
##    month   day dep_time sched_dep_time carrier distance
##    <int> <int>    <int>          <int>   <chr>    <dbl>
##  1     1     1      517            515      UA     1400
##  2     1     1      533            529      UA     1416
##  3     1     1      542            540      AA     1089
##  4     1     1      544            545      B6     1576
##  5     1     1      554            600      DL      762
##  6     1     1      554            558      UA      719
##  7     1     1      555            600      B6     1065
##  8     1     1      557            600      EV      229
##  9     1     1      557            600      B6      944
## 10     1     1      558            600      AA      733
## # ... with 328,511 more rows
```
---

class: dv

# select() columns

* `contains` / `starts_with` / `ends_with`

```r
# Select columns containing "time"
select(.data = flights, contains("time"))
```

```
## # A tibble: 328,521 x 2
##    dep_time sched_dep_time
##       <int>          <int>
##  1      517            515
##  2      533            529
##  3      542            540
##  4      544            545
##  5      554            600
##  6      554            558
##  7      555            600
##  8      557            600
##  9      557            600
## 10      558            600
## # ... with 328,511 more rows
```
…
---

class: dv

# arrange() to order rows 

* Order by distance? Lowest to highest? Vice versa?

```r
flights %>%
  arrange(distance)
```

```
## # A tibble: 328,521 x 7
##     year month   day dep_time sched_dep_time carrier distance
##    <int> <int> <int>    <int>          <int>   <chr>    <dbl>
##  1  2013     1     3     2127           2129      EV       80
##  2  2013     1     4     1240           1200      EV       80
##  3  2013     1     4     1829           1615      EV       80
##  4  2013     1     4     2128           2129      EV       80
##  5  2013     1     5     1155           1200      EV       80
##  6  2013     1     6     2125           2129      EV       80
##  7  2013     1     7     2124           2129      EV       80
##  8  2013     1     8     2127           2130      EV       80
##  9  2013     1     9     2126           2129      EV       80
## 10  2013     1    10     2133           2129      EV       80
## # ... with 328,511 more rows
```
---

class: dv

# arrange() to order rows 

* Order by distance? Lowest to highest? Vice versa?

```r
flights %>%
  arrange(desc(distance)) # descending order
```

```
## # A tibble: 328,521 x 7
##     year month   day dep_time sched_dep_time carrier distance
##    <int> <int> <int>    <int>          <int>   <chr>    <dbl>
##  1  2013     1     1      857            900      HA     4983
##  2  2013     1     2      909            900      HA     4983
##  3  2013     1     3      914            900      HA     4983
##  4  2013     1     4      900            900      HA     4983
##  5  2013     1     5      858            900      HA     4983
##  6  2013     1     6     1019            900      HA     4983
##  7  2013     1     7     1042            900      HA     4983
##  8  2013     1     8      901            900      HA     4983
##  9  2013     1     9      641            900      HA     4983
## 10  2013     1    10      859            900      HA     4983
## # ... with 328,511 more rows
```
…
---

class: dv

# mutate() to add new columns

```r
flights_late <- flights %>%
  mutate(delay = dep_time - sched_dep_time)

flights_late
```

```
## # A tibble: 328,521 x 8
##     year month   day dep_time sched_dep_time carrier distance delay
##    <int> <int> <int>    <int>          <int>   <chr>    <dbl> <int>
##  1  2013     1     1      517            515      UA     1400     2
##  2  2013     1     1      533            529      UA     1416     4
##  3  2013     1     1      542            540      AA     1089     2
##  4  2013     1     1      544            545      B6     1576    -1
##  5  2013     1     1      554            600      DL      762   -46
##  6  2013     1     1      554            558      UA      719    -4
##  7  2013     1     1      555            600      B6     1065   -45
##  8  2013     1     1      557            600      EV      229   -43
##  9  2013     1     1      557            600      B6      944   -43
## 10  2013     1     1      558            600      AA      733   -42
## # ... with 328,511 more rows
```
…
---

class: dv

# Tidying up - gather() and spread()

* `gather()` multiple columns together

```r
de %>% 
  gather(key = product, value = de, -scenario, -year)
```

```
## # A tibble: 60 x 4
##    scenario  year          product       de
##       <dbl> <dbl>            <chr>    <dbl>
##  1        1     1 IM_Fixed_Annuity 181893.9
##  2        1     2 IM_Fixed_Annuity 145249.0
##  3        1     3 IM_Fixed_Annuity 167350.3
##  4        1     4 IM_Fixed_Annuity 129080.0
##  5        1     5 IM_Fixed_Annuity 155391.4
##  6        2     1 IM_Fixed_Annuity 255595.0
##  7        2     2 IM_Fixed_Annuity 216497.4
##  8        2     3 IM_Fixed_Annuity 180066.7
##  9        2     4 IM_Fixed_Annuity 110949.7
## 10        2     5 IM_Fixed_Annuity 158623.1
## # ... with 50 more rows
```
…
